﻿{
    "data": {
        "attributes": {
            "about": "Hackathons and game jams are time bubble where nothing matters for a short period of time. For some days, the creativity can be released without constrain. It is the perfect situation to create the unexpected and the most unusual ideas.",
            "created": "2017-01-02T19:52:39+00:00",
            "discord_id": null,
            "email": "jams.center@gmail.com",
            "facebook": "https://www.facebook.com/jamscenter",
            "facebook_id": null,
            "first_name": "2",
            "full_name": "2 A.M.",
            "gender": 0,
            "has_password": true,
            "image_url": "https://c3.patreon.com/2/patreon-user/ZADw1dkmpWgwbFk3ZBjK0fkDyelFw99gWihqu07pfVJowHPj6Vo9TaliORSqvQgp.jpg?t=2145916800&w=400&v=cnwysB7I9nsO42Ym7L-GmZT-CsiOxNsKjdt-MrETsVQ%3D",
            "is_deleted": false,
            "is_email_verified": false,
            "is_nuked": false,
            "is_suspended": false,
            "last_name": "A.M.",
            "social_connections": {
                "deviantart": null,
                "discord": null,
                "facebook": {
                    "scopes": [
                        "user_likes",
                        "public_profile"
                    ],
                    "user_id": "10212695123482660"
                },
                "spotify": null,
                "twitch": null,
                "twitter": null,
                "youtube": {
                    "scopes": [
                        "https://www.googleapis.com/auth/youtube.readonly"
                    ],
                    "user_id": "UCvdIHr5vTwhXUICbOrdBNjQ"
                }
            },
            "thumb_url": "https://c3.patreon.com/2/patreon-user/ZADw1dkmpWgwbFk3ZBjK0fkDyelFw99gWihqu07pfVJowHPj6Vo9TaliORSqvQgp.jpg?h=100&t=2145916800&w=100&v=0G3w14CAghiM4VhyQf6J3u6a051ZHgMIkF0X3G9dn_I%3D",
            "twitch": "",
            "twitter": "jamscenter",
            "url": "https://www.patreon.com/2AM",
            "vanity": "2AM",
            "youtube": "https://www.youtube.com/channel/UCNF9z7L6bfkodhNWvnY5lsg"
        },
        "id": "4756181",
        "relationships": {
            "campaign": {
                "data": {
                    "id": "678965",
                    "type": "campaign"
                },
                "links": {
                    "related": "https://www.patreon.com/api/campaigns/678965"
                }
            }
        },
        "type": "user"
    },
    "included": [
        {
            "attributes": {
                "created_at": "2017-01-02T19:59:37+00:00",
                "creation_count": 7,
                "creation_name": "digital innovations & games",
                "discord_server_id": "200370537233383424",
                "display_patron_goals": false,
                "earnings_visibility": null,
                "image_small_url": "https://c3.patreon.com/2/patreon-user/KsZ2jsoBvmlGMVofyHeurVdGv87TQ0Myp4ilJtQYSioXvRUcdBMjQhn3Lh0WPy3x.jpg?h=1280&t=2145916800&w=1280&v=gtZn-dNQHMbDKzEZWoKQFc59Cyy8Ptg16_QJeOmZx_M%3D",
                "image_url": "https://c3.patreon.com/2/patreon-user/KsZ2jsoBvmlGMVofyHeurVdGv87TQ0Myp4ilJtQYSioXvRUcdBMjQhn3Lh0WPy3x.jpg?t=2145916800&w=1920&v=dn5KE6d6zLDMdl1l_tc1NKgJ2JqSeXXP0oYC4O-24kQ%3D",
                "is_charged_immediately": false,
                "is_monthly": true,
                "is_nsfw": false,
                "is_plural": false,
                "main_video_embed": "",
                "main_video_url": "",
                "one_liner": null,
                "outstanding_payment_amount_cents": 0,
                "patron_count": 2,
                "pay_per_name": "month",
                "pledge_sum": 544,
                "pledge_url": "/bePatron?c=678965",
                "published_at": "2017-03-19T22:05:27+00:00",
                "summary": "<h1 style=\"text-align: center;\"><img src=\"https://github.com/JamsCenter/2AM/blob/master/Assets/2D/WebRef/Patreon/PatreonTitle_WhatIs2Am.jpg?raw=true\"></h1>\n<div style=\"text-align: center;\">\n\tMy hobby is to explore new doors for the fun it.\n\t<br>\n</div>\n<div style=\"text-align: center;\">\n- \n\t<a href=\"https://primd.itch.io/blindlittlegirl\">Can we do a virtual game for blind people ?</a><br>\n- \n\t<a href=\"https://youtu.be/kyuuoEMRHwY\">Is it possible to make a game for jugglers ? </a><br>\n- \n\t<a href=\"https://youtu.be/5Z4SlNlE0d4\">Is it possible to have a body in VR ?</a> <br>\n- \n\t<a href=\"https://www.youtube.com/watch?v=x3LlTG2uwxI\">Is it possible to simulate a wheel chair in VR ? </a> <br>\n- \n\t<a href=\"https://www.youtube.com/watch?v=n6uqpYgrE2E\">How can we paint in virtual reality ?</a><br>\n\t<br>\nThat is the building block of my life time:\n\t<br>\n\t<em><strong>- Explore new possibilities</strong></em><br>\n\t<em><strong>\n\t- Have fun with code and innovation</strong></em><br>\n\t<em><strong>- Spread knowledge</strong></em><br>\n</div>\n<div style=\"text-align: center;\">\n\t<strong>\n\t</strong><br>You can access my researches<br><a href=\"https://github.com/jamscenter/2AM/wiki\">https://github.com/jamscenter/2AM/wiki</a><br>Information on my history<br><a href=\"http://jams.center/\">http://jams.center/</a><br><br>\n\t<strong>\n\tMay the code be with us<br>\n\tThanks you all !\n\t<br>\n\t</strong><br></div><br><br><br>\n<br>\n<a href=\"https://github.com/JamsCenter/2017_04_09_2AM_MondayReview/wiki\"></a><br>",
                "thanks_embed": null,
                "thanks_msg": "<strong><img src=\"http://i.imgur.com/qav24tl.gif\"><br>\n<br>\n<br>\n</strong>\n<div style=\"text-align: center;\">\n\t<strong>Thanks you !</strong><br>\n\t<strong></strong><br>\n\tYou are the best !\n\t<br>\n\tYou can find here a list of exclusives for 2 A.M. patrons.\n\t<br>\n\t<br>\n\t<br>\n\t<strong>Applications &amp; Games</strong><br>\n\tAll the public applications &amp; games from 2 A.M. and Jams.Center .\n\t<br>\n\t<strong><strong><strong><a href=\"https://www.dropbox.com/sh/w4b59vv68t2pjc1/AADMfl_BvmBCTD-oKmt9s_Sza?dl=0\">Access Here</a></strong></strong></strong><br>\n\t<br>\n\t<strong><strong>Executable History<br>\n\t</strong></strong>Executable version of the projects through the years<br>\n\t<strong><strong><a href=\"https://www.dropbox.com/sh/u2zqp2lbyuwp51e/AAAZ4Vt8EfeFK8n9BCn5bJYua?dl=0\">Access Here</a><strong></strong></strong></strong><br>\n\t<br>\n\t<strong><strong><strong>Hackathons Raw Records<br>\n\t</strong></strong></strong>Hackathons &amp; Jams recordings archive with the audio synchronised<br>\n\t<strong><strong><a href=\"https://www.dropbox.com/sh/3x2bq6gy232xtgw/AAC9xv14pv2TSNUCbRDMDKqOa?dl=0\">Access Here</a></strong></strong><br>\n\t<strong><strong><strong></strong></strong></strong><br>\n\t<strong>Raw source fro<strong>m old projects</strong></strong><br>\n\tThis folder contains old public projects\n\t<br>\n\t<em>(The code is not clean, verified or documented)</em><br>\n\t<strong><strong><a href=\"https://www.dropbox.com/sh/ue713ceettrpuc8/AAD7yRuvnN-npl6CFEg_1-cia?dl=0\">Access Here</a></strong></strong><br>\n\t<strong></strong><br>\n\t<strong><strong><strong>Password:<br>\n\t</strong></strong></strong>YouHaveMyGratitude!<strong><strong><strong></strong></strong></strong><br>\n\t<strong><strong><strong></strong></strong></strong><br>\n\t<h1>Reminder</h1>\n\t<br>\n\t<strong><strong><strong><strong><strong><strong>Discord:</strong></strong></strong><br>\n\t<strong><strong><strong><a href=\"https://discord.gg/U4PpdEj\" target=\"_blank\">https://discord.gg/U4PpdEj</a><br>\n\t<br>\n\t<strong><strong><strong>GitHub redirection:</strong></strong></strong><br>\n\t<strong><strong><strong><a href=\"https://github.com/JamsCenter/2AM\" target=\"_blank\">https://github.com/JamsCenter/2AM<br>\n\t</a></strong></strong></strong></strong></strong></strong></strong></strong></strong><strong><strong><strong><a href=\"https://discord.gg/U4PpdEj\">\n\t</a></strong></strong></strong><br>\n\t<strong>If you have any questions:</strong><br>\njams.center@gmail.com\n</div>",
                "thanks_video_url": null
            },
            "id": "678965",
            "relationships": {
                "creator": {
                    "data": {
                        "id": "4756181",
                        "type": "user"
                    },
                    "links": {
                        "related": "https://www.patreon.com/api/user/4756181"
                    }
                },
                "goals": {
                    "data": [
                        {
                            "id": "662349",
                            "type": "goal"
                        }
                    ]
                },
                "rewards": {
                    "data": [
                        {
                            "id": "-1",
                            "type": "reward"
                        },
                        {
                            "id": "0",
                            "type": "reward"
                        },
                        {
                            "id": "1402520",
                            "type": "reward"
                        },
                        {
                            "id": "1469524",
                            "type": "reward"
                        },
                        {
                            "id": "1471141",
                            "type": "reward"
                        }
                    ]
                }
            },
            "type": "campaign"
        },
        {
            "attributes": {
                "amount": 0,
                "amount_cents": 0,
                "created_at": null,
                "description": "Everyone",
                "remaining": 0,
                "requires_shipping": false,
                "type": "reward",
                "url": null,
                "user_limit": null
            },
            "id": "-1",
            "relationships": {
                "creator": {
                    "data": {
                        "id": "4756181",
                        "type": "user"
                    },
                    "links": {
                        "related": "https://www.patreon.com/api/user/4756181"
                    }
                }
            },
            "type": "reward"
        },
        {
            "attributes": {
                "amount": 1,
                "amount_cents": 1,
                "created_at": null,
                "description": "Patrons Only",
                "remaining": 0,
                "requires_shipping": false,
                "type": "reward",
                "url": null,
                "user_limit": null
            },
            "id": "0",
            "relationships": {
                "creator": {
                    "data": {
                        "id": "4756181",
                        "type": "user"
                    },
                    "links": {
                        "related": "https://www.patreon.com/api/user/4756181"
                    }
                }
            },
            "type": "reward"
        },
        {
            "attributes": {
                "amount": 100,
                "amount_cents": 100,
                "created_at": "2017-02-14T00:20:03.128603+00:00",
                "deleted_at": null,
                "description": "<em><strong>Reward:<br>\n- Your name in the credits</strong></em>\n<p><em><strong>- Access to all my projects</strong></em></p>\n<p><strong><br>\nContribution to<br>\n</strong>- Videos, codes &amp; applications</p>\n<p>- All my open source researches<br>\n- Knowledge sharing\u00a0</p>\n<p><br></p>\n<p><ins>What is a beerware donation?<br>\n</ins><a href=\"https://en.wikipedia.org/wiki/Beerware\" rel=\"nofollow noopener\" target=\"_blank\"><ins>https://en.wikipedia.org/wiki/Beerware</ins></a><ins><br>\n<br>\nDonate only one time ?\u00a0</ins></p>\n<p>\u00a0<a href=\"https://goo.gl/3C36dp\" rel=\"nofollow noopener\" target=\"_blank\">https://goo.gl/3C36dp</a><br>\n<br>\n</p>",
                "discord_role_ids": null,
                "edited_at": "2017-07-14T16:05:52.412556+00:00",
                "image_url": "https://s3-us-west-1.amazonaws.com/patreon-reward-images/1402520.jpeg",
                "patron_count": 1,
                "post_count": null,
                "published": true,
                "published_at": "2017-02-14T00:20:03.128603+00:00",
                "remaining": null,
                "requires_shipping": false,
                "title": "Beerware  Donation",
                "unpublished_at": null,
                "url": "/bePatron?c=678965&rid=1402520",
                "user_limit": null
            },
            "id": "1402520",
            "relationships": {
                "campaign": {
                    "data": {
                        "id": "678965",
                        "type": "campaign"
                    },
                    "links": {
                        "related": "https://www.patreon.com/api/campaigns/678965"
                    }
                },
                "creator": {
                    "data": {
                        "id": "4756181",
                        "type": "user"
                    },
                    "links": {
                        "related": "https://www.patreon.com/api/user/4756181"
                    }
                }
            },
            "type": "reward"
        },
        {
            "attributes": {
                "amount": 500,
                "amount_cents": 500,
                "created_at": "2017-03-06T01:34:59.756050+00:00",
                "deleted_at": null,
                "description": "\u00a0<em><strong>Reward:<br>\n- Your logo in the credits<br>\n- Commercial licence</strong></em><br>\n<br>\nPlease consider a win-win donation if:<em><br>\n-my work saves you lot of time<br>\n-my work commercially help you<br>\n-my researches helped you</em>\n<p><em><br>\n</em>\u00a0</p>",
                "discord_role_ids": null,
                "edited_at": "2017-07-14T16:07:17.897608+00:00",
                "image_url": "https://s3-us-west-1.amazonaws.com/patreon-reward-images/1469524.jpeg",
                "patron_count": 1,
                "post_count": null,
                "published": true,
                "published_at": "2017-03-06T01:36:08.890876+00:00",
                "remaining": null,
                "requires_shipping": false,
                "title": "Win-Win Donation",
                "unpublished_at": null,
                "url": "/bePatron?c=678965&rid=1469524",
                "user_limit": null
            },
            "id": "1469524",
            "relationships": {
                "campaign": {
                    "data": {
                        "id": "678965",
                        "type": "campaign"
                    },
                    "links": {
                        "related": "https://www.patreon.com/api/campaigns/678965"
                    }
                },
                "creator": {
                    "data": {
                        "id": "4756181",
                        "type": "user"
                    },
                    "links": {
                        "related": "https://www.patreon.com/api/user/4756181"
                    }
                }
            },
            "type": "reward"
        },
        {
            "attributes": {
                "amount": 2000,
                "amount_cents": 2000,
                "created_at": "2017-03-06T14:27:40.257564+00:00",
                "deleted_at": null,
                "description": "\u00a0<em><strong>Reward:<br>\n- Your logo in credits</strong></em>\n<p><em><strong>- Technical support<br>\n</strong></em><br>\n2 A.M. is about code, innovation, \u00a0game, hardware, coworking, employment, skills learning, software exploration, citizens help, research...<br>\n<br>\nBy investing on this project, you are helping everyone around it.</p>\n<p><br></p>\n<p><br></p>",
                "discord_role_ids": null,
                "edited_at": "2017-07-14T16:09:02.422901+00:00",
                "image_url": "https://s3-us-west-1.amazonaws.com/patreon-reward-images/1471141.jpeg",
                "patron_count": 0,
                "post_count": null,
                "published": true,
                "published_at": "2017-03-06T14:27:40.257564+00:00",
                "remaining": null,
                "requires_shipping": false,
                "title": "Clever investement",
                "unpublished_at": null,
                "url": "/bePatron?c=678965&rid=1471141",
                "user_limit": null
            },
            "id": "1471141",
            "relationships": {
                "campaign": {
                    "data": {
                        "id": "678965",
                        "type": "campaign"
                    },
                    "links": {
                        "related": "https://www.patreon.com/api/campaigns/678965"
                    }
                },
                "creator": {
                    "data": {
                        "id": "4756181",
                        "type": "user"
                    },
                    "links": {
                        "related": "https://www.patreon.com/api/user/4756181"
                    }
                }
            },
            "type": "reward"
        },
        {
            "attributes": {
                "amount": 100000,
                "amount_cents": 100000,
                "completed_percentage": 0,
                "created_at": "2017-01-02T23:49:25+00:00",
                "description": "<strong>A long-term project:</strong><em><br>\n- Funding my researches\n<br>- Code weird projects</em><br>- Code helpful tools &amp; apps<br><br>\n\"The IT is the art of losing lots of time to save few to everybody\"\n<br><br>\n<strong>Access my projects</strong><strong><strong><br><a href=\"http://www.jams.center/projectsandresearches/\" target=\"_blank\">http://jams.center/</a></strong><br></strong>",
                "reached_at": null,
                "title": ""
            },
            "id": "662349",
            "type": "goal"
        }
    ],
    "links": {
        "self": "https://www.patreon.com/api/user/4756181"
    }
}